<svg width="120" height="139" viewBox="0 0 120 139" fill="none" xmlns="http://www.w3.org/2000/svg">
<g filter="url(#filter0_d)">
<g filter="url(#filter1_d)">
<path d="M44.9874 57.2556C44.9874 53.8163 45.0425 50.4432 45.0756 46.9268C48.9117 46.9268 52.5935 46.9268 56.2532 47.059C60.42 47.2464 62.5255 50.84 60.872 54.6651C59.9901 56.7044 58.1272 57.2556 56.2202 57.3107C52.4833 57.432 48.8015 57.2886 44.9874 57.2556Z" fill="#ED2F26"/>
</g>
<g filter="url(#filter2_d)">
<path d="M44.8442 66.5812C45.2501 66.5271 45.6585 66.494 46.0678 66.482C50.2016 66.6033 54.3684 66.5481 58.48 66.9229C61.2138 67.1765 62.4043 69.0174 62.4043 71.8944C62.4043 74.7715 61.1256 76.5903 58.4911 76.9762C56.4124 77.2061 54.3207 77.2981 52.2298 77.2517C49.8598 77.2517 47.5009 77.2517 45.1308 77.1636C45.0427 77.1636 44.9545 77.0864 44.734 76.9982C44.7671 73.5259 44.7671 70.1197 44.8442 66.5812Z" fill="#ED2F26"/>
</g>
<g filter="url(#filter3_d)">
<path d="M94.7684 49.9468C93.6224 60.4405 90.7273 70.6682 86.2033 80.2058H86.1372C85.608 81.3081 85.0348 82.3443 84.4947 83.3915V83.4576C82.2866 87.4956 79.7227 91.3285 76.8335 94.9108C74.7174 97.5351 72.4267 100.014 69.977 102.329C66.4519 105.672 62.6417 108.7 58.59 111.38C58.1601 111.556 57.7412 111.732 57.3223 111.931C56.9034 112.129 56.4074 112.493 55.9444 112.769L54.8421 113.485L53.7397 112.769L52.3508 111.931C51.9429 111.732 51.524 111.556 51.0831 111.38C47.0334 108.697 43.2235 105.669 39.6961 102.329L39.3654 102.087C38.2266 100.954 37.4504 99.5076 37.1354 97.9322C36.8204 96.3568 36.9809 94.7234 37.5965 93.2394C38.212 91.7555 39.2548 90.488 40.5924 89.5982C41.93 88.7083 43.5019 88.2361 45.1085 88.2417H61.6434C63.2669 88.285 64.8892 88.122 66.4716 87.7567C72.1266 86.3237 75.9627 82.9065 77.1642 77.1082C78.1563 72.3131 77.4177 68.003 74.3312 64.6299C83.1498 60.5402 90.0284 55.5577 94.7684 49.9468Z" fill="#ED2F26"/>
</g>
<g filter="url(#filter4_d)">
<path d="M95 30.3476C95 41.5804 85.553 51.3801 70.5944 58.2035C69.0565 58.7196 67.4731 59.0886 65.8655 59.3058C65.4466 59.3058 66.0859 59.4601 65.7662 59.3058C66.8872 58.9966 67.991 58.6287 69.0732 58.2035C69.6776 57.9547 70.2601 57.656 70.8149 57.3106C72.2305 56.5453 73.4326 55.4387 74.3123 54.0913C75.192 52.7438 75.7214 51.1981 75.8526 49.5943C76.1787 47.5632 75.9 45.481 75.0513 43.6071C74.2026 41.7333 72.8213 40.1505 71.0795 39.056C68.1976 37.0925 64.789 36.0473 61.3018 36.0577C54.8312 35.9475 36.5876 35.9475 22.4447 35.8372C21.305 35.8424 20.1797 35.5821 19.158 35.077C18.1363 34.5718 17.2462 33.8358 16.5583 32.9271C15.9227 32.1169 15.4655 31.1815 15.2166 30.1823C14.9678 29.183 14.9329 28.1425 15.1143 27.1288V27.0186C15.2992 25.9191 15.7647 24.8859 16.4656 24.0189C17.1666 23.1519 18.0794 22.4803 19.1157 22.0691C27.7921 18.5317 36.9457 16.3027 46.2771 15.4552C47.9967 15.3339 49.3085 15.3119 51.0281 15.1796C64.0576 14.2095 79.2147 17.2079 93.1812 23.2376C93.3575 23.3148 93.5339 23.3809 93.6772 23.4581C94.4105 25.6887 94.8551 28.004 95 30.3476Z" fill="#ED2F26"/>
</g>
</g>
<defs>
<filter id="filter0_d" x="7" y="7" width="110" height="128.485" filterUnits="userSpaceOnUse" color-interpolation-filters="sRGB">
<feFlood flood-opacity="0" result="BackgroundImageFix"/>
<feColorMatrix in="SourceAlpha" type="matrix" values="0 0 0 0 0 0 0 0 0 0 0 0 0 0 0 0 0 0 127 0"/>
<feOffset dx="7" dy="7"/>
<feGaussianBlur stdDeviation="7.5"/>
<feColorMatrix type="matrix" values="0 0 0 0 1 0 0 0 0 1 0 0 0 0 1 0 0 0 0.2 0"/>
<feBlend mode="normal" in2="BackgroundImageFix" result="effect1_dropShadow"/>
<feBlend mode="normal" in="SourceGraphic" in2="effect1_dropShadow" result="shape"/>
</filter>
<filter id="filter1_d" x="29.9874" y="31.9268" width="56.4496" height="50.4318" filterUnits="userSpaceOnUse" color-interpolation-filters="sRGB">
<feFlood flood-opacity="0" result="BackgroundImageFix"/>
<feColorMatrix in="SourceAlpha" type="matrix" values="0 0 0 0 0 0 0 0 0 0 0 0 0 0 0 0 0 0 127 0"/>
<feOffset dx="5" dy="5"/>
<feGaussianBlur stdDeviation="10"/>
<feColorMatrix type="matrix" values="0 0 0 0 1 0 0 0 0 1 0 0 0 0 1 0 0 0 0.25 0"/>
<feBlend mode="normal" in2="BackgroundImageFix" result="effect1_dropShadow"/>
<feBlend mode="normal" in="SourceGraphic" in2="effect1_dropShadow" result="shape"/>
</filter>
<filter id="filter2_d" x="29.734" y="51.482" width="57.6703" height="50.7814" filterUnits="userSpaceOnUse" color-interpolation-filters="sRGB">
<feFlood flood-opacity="0" result="BackgroundImageFix"/>
<feColorMatrix in="SourceAlpha" type="matrix" values="0 0 0 0 0 0 0 0 0 0 0 0 0 0 0 0 0 0 127 0"/>
<feOffset dx="5" dy="5"/>
<feGaussianBlur stdDeviation="10"/>
<feColorMatrix type="matrix" values="0 0 0 0 1 0 0 0 0 1 0 0 0 0 1 0 0 0 0.25 0"/>
<feBlend mode="normal" in2="BackgroundImageFix" result="effect1_dropShadow"/>
<feBlend mode="normal" in="SourceGraphic" in2="effect1_dropShadow" result="shape"/>
</filter>
<filter id="filter3_d" x="21.9781" y="34.9468" width="97.7902" height="103.538" filterUnits="userSpaceOnUse" color-interpolation-filters="sRGB">
<feFlood flood-opacity="0" result="BackgroundImageFix"/>
<feColorMatrix in="SourceAlpha" type="matrix" values="0 0 0 0 0 0 0 0 0 0 0 0 0 0 0 0 0 0 127 0"/>
<feOffset dx="5" dy="5"/>
<feGaussianBlur stdDeviation="10"/>
<feColorMatrix type="matrix" values="0 0 0 0 1 0 0 0 0 1 0 0 0 0 1 0 0 0 0.25 0"/>
<feBlend mode="normal" in2="BackgroundImageFix" result="effect1_dropShadow"/>
<feBlend mode="normal" in="SourceGraphic" in2="effect1_dropShadow" result="shape"/>
</filter>
<filter id="filter4_d" x="0" y="0" width="120" height="84.3744" filterUnits="userSpaceOnUse" color-interpolation-filters="sRGB">
<feFlood flood-opacity="0" result="BackgroundImageFix"/>
<feColorMatrix in="SourceAlpha" type="matrix" values="0 0 0 0 0 0 0 0 0 0 0 0 0 0 0 0 0 0 127 0"/>
<feOffset dx="5" dy="5"/>
<feGaussianBlur stdDeviation="10"/>
<feColorMatrix type="matrix" values="0 0 0 0 1 0 0 0 0 1 0 0 0 0 1 0 0 0 0.25 0"/>
<feBlend mode="normal" in2="BackgroundImageFix" result="effect1_dropShadow"/>
<feBlend mode="normal" in="SourceGraphic" in2="effect1_dropShadow" result="shape"/>
</filter>
</defs>
</svg>
